Quarto - Datenmanagement und deskriptive Statistik
…
arrange

Mit der Funktion arrange sortieren wir die Daten. Hier nach Anzahl tubers in aufsteigender Reihenfolge.

pot.sub %>% arrange(tubers)

# A tibble: 24 x 6
# Groups:   variety, method [12]
   variety   method     plant tubers weight infection
   <chr>     <chr>      <dbl>  <dbl>  <dbl>     <dbl>
 1 Mariva    hydroponic     9      1   7.85         0
 2 Mariva    hydroponic     9      2  10.8          0
 3 Unica     aeroponic      6      2 112.           0
 4 Unica     hydroponic     6      2  17.1          0
 5 Unica     hydroponic     4      2  21.8          0
 6 Costanera pot            5      3 110.           0
 7 Unica     bed            9      3  38            0
 8 Unica     aeroponic      7      4  50.1          0
 9 Unica     bed            9      4 124.           0
10 Unica     pot            7      4  50.4          0
# i 14 more rows

und hier in absteigender Reihenfolge durch Funktion desc():

pot.sub %>% arrange(desc(tubers))

# A tibble: 24 x 6
# Groups:   variety, method [12]
   variety   method     plant tubers weight infection
   <chr>     <chr>      <dbl>  <dbl>  <dbl>     <dbl>
 1 Costanera aeroponic      5      7   42           0
 2 Costanera bed            4      7  137.          1
 3 Costanera pot            6      7  139.          0
 4 Mariva    pot            5      7  104.          0
 5 Costanera hydroponic     8      6   31.8         1
 6 Mariva    aeroponic      7      6   99.2         0
 7 Costanera aeroponic      1      5   24.1         0
 8 Costanera bed            3      5   78           1
 9 Costanera hydroponic     4      5   42           1
10 Mariva    aeroponic      5      5   72.6         0
# i 14 more rows

und hier für zwei Kriterien (wobei letzteres Kriterium nur bei gleichen Werten in erstem Kriterium sortiert wird)

pot.sub %>% arrange(desc(tubers),desc(weight))

# A tibble: 24 x 6
# Groups:   variety, method [12]
   variety   method     plant tubers weight infection
   <chr>     <chr>      <dbl>  <dbl>  <dbl>     <dbl>
 1 Costanera pot            6      7  139.          0
 2 Costanera bed            4      7  137.          1
 3 Mariva    pot            5      7  104.          0
 4 Costanera aeroponic      5      7   42           0
 5 Mariva    aeroponic      7      6   99.2         0
 6 Costanera hydroponic     8      6   31.8         1
 7 Unica     pot            9      5   97.7         1
 8 Costanera bed            3      5   78           1
 9 Mariva    bed            8      5   77.3         0
10 Mariva    aeroponic      5      5   72.6         0
# i 14 more rows
…
Spalten

Häufig arbeitet man mit großen Datensätzen und vielen Variablen.

select

Mit der Funktion select kann man Variablen auswählen, indem ich sie durch Komme getrennt aufliste:

pot.sub %>% select(variety, method, tubers, weight)

# A tibble: 24 x 4
# Groups:   variety, method [12]
   variety   method     tubers weight
   <chr>     <chr>       <dbl>  <dbl>
 1 Costanera aeroponic       5   24.1
 2 Costanera aeroponic       7   42  
 3 Costanera bed             7  137. 
 4 Costanera bed             5   78  
 5 Costanera hydroponic      6   31.8
 6 Costanera hydroponic      5   42  
 7 Costanera pot             3  110. 
 8 Costanera pot             7  139. 
 9 Mariva    aeroponic       6   99.2
10 Mariva    aeroponic       5   72.6
# i 14 more rows

oder von variety bis weight

pot.sub %>% select(variety:weight)

# A tibble: 24 x 5
# Groups:   variety, method [12]
   variety   method     plant tubers weight
   <chr>     <chr>      <dbl>  <dbl>  <dbl>
 1 Costanera aeroponic      1      5   24.1
 2 Costanera aeroponic      5      7   42  
 3 Costanera bed            4      7  137. 
 4 Costanera bed            3      5   78  
 5 Costanera hydroponic     8      6   31.8
 6 Costanera hydroponic     4      5   42  
 7 Costanera pot            5      3  110. 
 8 Costanera pot            6      7  139. 
 9 Mariva    aeroponic      7      6   99.2
10 Mariva    aeroponic      5      5   72.6
# i 14 more rows

wie oben nur ohne plant

pot.sub %>% 
  select(variety:weight)%>% 
  select(!plant)

# A tibble: 24 x 4
# Groups:   variety, method [12]
   variety   method     tubers weight
   <chr>     <chr>       <dbl>  <dbl>
 1 Costanera aeroponic       5   24.1
 2 Costanera aeroponic       7   42  
 3 Costanera bed             7  137. 
 4 Costanera bed             5   78  
 5 Costanera hydroponic      6   31.8
 6 Costanera hydroponic      5   42  
 7 Costanera pot             3  110. 
 8 Costanera pot             7  139. 
 9 Mariva    aeroponic       6   99.2
10 Mariva    aeroponic       5   72.6
# i 14 more rows

pot %>% 
  select(ends_with(".f")) %>% 
  slice_sample(n=8)

Dataframe mit 0 Spalten und 8 Zeilen

rename

Variablen können umbenannt werden durch die Funktion rename().

pot.sub %>% rename(plant_ID=plant)

# A tibble: 24 x 6
# Groups:   variety, method [12]
   variety   method     plant_ID tubers weight infection
   <chr>     <chr>         <dbl>  <dbl>  <dbl>     <dbl>
 1 Costanera aeroponic         1      5   24.1         0
 2 Costanera aeroponic         5      7   42           0
 3 Costanera bed               4      7  137.          1
 4 Costanera bed               3      5   78           1
 5 Costanera hydroponic        8      6   31.8         1
 6 Costanera hydroponic        4      5   42           1
 7 Costanera pot               5      3  110.          0
 8 Costanera pot               6      7  139.          0
 9 Mariva    aeroponic         7      6   99.2         0
10 Mariva    aeroponic         5      5   72.6         0
# i 14 more rows

pot.sub

# A tibble: 24 x 6
# Groups:   variety, method [12]
   variety   method     plant tubers weight infection
   <chr>     <chr>      <dbl>  <dbl>  <dbl>     <dbl>
 1 Costanera aeroponic      1      5   24.1         0
 2 Costanera aeroponic      5      7   42           0
 3 Costanera bed            4      7  137.          1
 4 Costanera bed            3      5   78           1
 5 Costanera hydroponic     8      6   31.8         1
 6 Costanera hydroponic     4      5   42           1
 7 Costanera pot            5      3  110.          0
 8 Costanera pot            6      7  139.          0
 9 Mariva    aeroponic      7      6   99.2         0
10 Mariva    aeroponic      5      5   72.6         0
# i 14 more rows

Auch hire müssen wir die Daten in einem neuen data.frame pot.sub1 speichern oder überschreiben (pot.sub=pot.sub %>% rename(plant_ID=plant)), um auf die neue Variable zugreifen zu können.

pot.sub1=pot.sub %>% rename(plant_ID=plant)
pot.sub1

# A tibble: 24 x 6
# Groups:   variety, method [12]
   variety   method     plant_ID tubers weight infection
   <chr>     <chr>         <dbl>  <dbl>  <dbl>     <dbl>
 1 Costanera aeroponic         1      5   24.1         0
 2 Costanera aeroponic         5      7   42           0
 3 Costanera bed               4      7  137.          1
 4 Costanera bed               3      5   78           1
 5 Costanera hydroponic        8      6   31.8         1
 6 Costanera hydroponic        4      5   42           1
 7 Costanera pot               5      3  110.          0
 8 Costanera pot               6      7  139.          0
 9 Mariva    aeroponic         7      6   99.2         0
10 Mariva    aeroponic         5      5   72.6         0
# i 14 more rows

mutate

Eine neue Variable kann durch die Funktion mutate berechnet und eingefügt werden.

Beispielsweise könnten wir das Gewicht in kg statt g angeben. Es wird eine neue Variable erzeugt weight_kg indem weight durch 1000 geteilt wird.

pot.sub %>% 
  mutate(weight_kg=weight/1000)

# A tibble: 24 x 7
# Groups:   variety, method [12]
   variety   method     plant tubers weight infection weight_kg
   <chr>     <chr>      <dbl>  <dbl>  <dbl>     <dbl>     <dbl>
 1 Costanera aeroponic      1      5   24.1         0    0.0241
 2 Costanera aeroponic      5      7   42           0    0.042 
 3 Costanera bed            4      7  137.          1    0.137 
 4 Costanera bed            3      5   78           1    0.078 
 5 Costanera hydroponic     8      6   31.8         1    0.0318
 6 Costanera hydroponic     4      5   42           1    0.042 
 7 Costanera pot            5      3  110.          0    0.110 
 8 Costanera pot            6      7  139.          0    0.139 
 9 Mariva    aeroponic      7      6   99.2         0    0.0992
10 Mariva    aeroponic      5      5   72.6         0    0.0726
# i 14 more rows

Damit diese neue Variable im Datensatz nicht nur erscheint, sondern auch zugreifbar ist, speichere ich den Datensatz unter einem neuen Namen ab. Man könnte ihn auch überschreiben. Ausserdem noch zwei Beispiele für eine log- und Wurzel-Transformation

pot.sub1=pot.sub %>% 
  mutate(weight_kg=weight/1000,
         weight.sqrt=sqrt(weight),
         weight.l=log(weight),
         tubers.l=log(tubers))
pot.sub1

# A tibble: 24 x 10
# Groups:   variety, method [12]
   variety   method plant tubers weight infection weight_kg weight.sqrt weight.l
   <chr>     <chr>  <dbl>  <dbl>  <dbl>     <dbl>     <dbl>       <dbl>    <dbl>
 1 Costanera aerop~     1      5   24.1         0    0.0241        4.91     3.18
 2 Costanera aerop~     5      7   42           0    0.042         6.48     3.74
 3 Costanera bed        4      7  137.          1    0.137        11.7      4.92
 4 Costanera bed        3      5   78           1    0.078         8.83     4.36
 5 Costanera hydro~     8      6   31.8         1    0.0318        5.64     3.46
 6 Costanera hydro~     4      5   42           1    0.042         6.48     3.74
 7 Costanera pot        5      3  110.          0    0.110        10.5      4.70
 8 Costanera pot        6      7  139.          0    0.139        11.8      4.93
 9 Mariva    aerop~     7      6   99.2         0    0.0992        9.96     4.60
10 Mariva    aerop~     5      5   72.6         0    0.0726        8.52     4.28
# i 14 more rows
# i 1 more variable: tubers.l <dbl>
…
